[
{
    "model": "poll.poll",
    "pk": 1,
    "fields": {
        "organization": null,
        "title": "\u0417\u0430\u043f\u0438\u0441\u044c \u043d\u0430 \u043f\u0440\u043e\u0431\u043d\u043e\u0435 \u0437\u0430\u043d\u044f\u0442\u0438\u0435",
        "slug": "zapis-na-probnoe-zanyatie",
        "post_button_text": "\u0417\u0430\u043f\u0438\u0441\u0430\u0442\u044c\u0441\u044f",
        "is_active": true,
        "created": "2019-09-09T12:10:27.789Z"
    }
},
{
    "model": "poll.poll",
    "pk": 2,
    "fields": {
        "organization": null,
        "title": "\u0422\u0435\u0441\u0442\u043e\u0432\u044b\u0439 \u043e\u043f\u0440\u043e\u0441",
        "slug": "testovyj-opros",
        "post_button_text": "\u041e\u0442\u043f\u0440\u0430\u0432\u0438\u0442\u044c",
        "is_active": true,
        "created": "2019-09-09T12:10:27.789Z"
    }
},
{
    "model": "poll.question",
    "pk": 1,
    "fields": {
        "poll": 1,
        "question_text": "\u041a\u0430\u043a \u043a \u0412\u0430\u043c \u043e\u0431\u0440\u0430\u0449\u0430\u0442\u044c\u0441\u044f",
        "field_type": "char",
        "field_data": null,
        "is_unique": false,
        "is_required": true,
        "sort_num": 1
    }
},
{
    "model": "poll.question",
    "pk": 2,
    "fields": {
        "poll": 1,
        "question_text": "\u0418\u043c\u044f \u0438 \u0432\u043e\u0437\u0440\u0430\u0441\u0442 \u044e\u043d\u043e\u0433\u043e \u0440\u043e\u0431\u043e\u0442\u043e\u0441\u0442\u0440\u043e\u0438\u0442\u0435\u043b\u044f",
        "field_type": "char",
        "field_data": null,
        "is_unique": false,
        "is_required": true,
        "sort_num": 2
    }
},
{
    "model": "poll.question",
    "pk": 3,
    "fields": {
        "poll": 1,
        "question_text": "\u041e\u0442\u043a\u0443\u0434\u0430 \u0412\u044b",
        "field_type": "choice",
        "field_data": "\u041c\u0438\u0445\u0430\u0439\u043b\u043e\u0432\u043a\u0430, \u041c\u0438\u0445\u0430\u0439\u043b\u043e\u0432\u043a\u0430 \u0413\u0440\u0438\u043d, \u0421\u0443\u0440\u043e\u0432\u043a\u0430, \u0417\u0430\u0442\u043e\u043d, \u041c\u0438\u043b\u043e\u0432\u043a\u0430, \u0410\u043b\u0435\u043a\u0441\u0435\u0435\u0432\u043a\u0430, \u0414\u043c\u0438\u0442\u0440\u0438\u0435\u0432\u043a\u0430",
        "is_unique": false,
        "is_required": true,
        "sort_num": 3
    }
},
{
    "model": "poll.question",
    "pk": 4,
    "fields": {
        "poll": 1,
        "question_text": "\u0423\u0434\u043e\u0431\u043d\u044b\u0435 \u0434\u043d\u0438 \u0438 \u0432\u0440\u0435\u043c\u044f \u0434\u043b\u044f \u043f\u043e\u0441\u0435\u0449\u0435\u043d\u0438\u044f",
        "field_type": "text",
        "field_data": null,
        "is_unique": false,
        "is_required": true,
        "sort_num": 4
    }
},
{
    "model": "poll.question",
    "pk": 5,
    "fields": {
        "poll": 1,
        "question_text": "\u0422\u0435\u043b\u0435\u0444\u043e\u043d \u0434\u043b\u044f \u0441\u0432\u044f\u0437\u0438",
        "field_type": "phone",
        "field_data": null,
        "is_unique": true,
        "is_required": true,
        "sort_num": 5
    }
},
{
    "model": "poll.question",
    "pk": 6,
    "fields": {
        "poll": 2,
        "question_text": "\u041b\u044e\u0431\u043e\u0439 \u043e\u0442\u0432\u0435\u0442",
        "field_type": "char",
        "field_data": null,
        "is_unique": false,
        "is_required": true,
        "sort_num": 1
    }
}
]
