[
{
    "model": "sites.site",
    "pk": 1,
    "fields": {
        "domain": "robocraftlab.ru",
        "name": "\u041b\u0430\u0431\u043e\u0440\u0430\u0442\u043e\u0440\u0438\u044f \u0440\u043e\u0431\u043e\u0442\u043e\u0432"
    }
}
]
